Assignment 1/Q3/Filter_traces.vcd
$date
     Jun 05, 2019       12:34:09
$end

$version
 SystemC 2.3.1-Accellera --- Apr 30 2015 14:13:38
$end

$timescale
     1 ns
$end

$scope module SystemC $end
$var real    1  aaaaa  X       $end
$var real    1  aaaab  Y       $end
$var wire    1  aaaac  RST       $end
$upscope $end
$enddefinitions  $end

$comment
All initial values are dumped below at time 0 sec = 0 timescale units.
$end

$dumpvars
r0 aaaaa
r0 aaaab
0aaaac
$end

#1
1aaaac

#11
r1 aaaaa
r0.25 aaaab
0aaaac

#21
r0 aaaaa
r0.375 aaaab

#31
r0.75 aaaab

#41
r-0.46875 aaaab

#51
r0.046875 aaaab

#61
r0.09375 aaaab

#71
r-0.05859375 aaaab

#81
r0.005859375 aaaab

#91
r0.01171875 aaaab

#101
r-0.00732421875 aaaab

#111
r0.000732421875 aaaab

#121
r0.00146484375 aaaab

#131
r-0.00091552734375 aaaab

#141
r9.1552734375e-05 aaaab

#151
r0.00018310546875 aaaab

#161
r-0.00011444091796875 aaaab

#171
r1.1444091796875e-05 aaaab

#181
r2.288818359375e-05 aaaab

#191
r-1.430511474609375e-05 aaaab

